<svg width="460px" height="460px" viewBox="0 0 460 460" version="1.1" xmlns="http://www.w3.org/2000/svg" xmlns:xlink="http://www.w3.org/1999/xlink">
    <g id="Page-1" stroke="none" stroke-width="1" fill="none" fill-rule="evenodd">
        <g id="Diet-Lifestyle" transform="translate(-210.000000, -282.000000)" fill="#FFF0F5">
            <circle id="Oval" cx="440" cy="512" r="230"></circle>
        </g>
    </g>
</svg>
