<svg width="589px" height="590px" viewBox="0 0 589 590" version="1.1" xmlns="http://www.w3.org/2000/svg" xmlns:xlink="http://www.w3.org/1999/xlink">
    <g id="Page-1" stroke="none" stroke-width="1" fill="none" fill-rule="evenodd">
        <g id="Sign-Up-Copy" transform="translate(-105.000000, -229.000000)" fill="#FFF0F5">
            <rect id="Rectangle-4-Copy-2" transform="translate(399.500000, 524.000000) rotate(-315.000000) translate(-399.500000, -524.000000) " x="199" y="308" width="401" height="432"></rect>
        </g>
    </g>
</svg>
