<svg width="30px" height="24px" viewBox="0 0 30 24" version="1.1" xmlns="http://www.w3.org/2000/svg" xmlns:xlink="http://www.w3.org/1999/xlink">
    <g id="Page-1" stroke="none" stroke-width="1" fill="none" fill-rule="evenodd">
        <g id="Landing-Page" transform="translate(-1258.000000, -2307.000000)" fill="#FFFFFF">
            <path d="M1287.87226,2309.914 C1287.72226,2309.746 1287.47626,2309.701 1287.27526,2309.801 C1287.04026,2309.919 1286.52027,2310.086 1285.95127,2310.231 C1286.52827,2309.568 1287.01026,2308.766 1287.20226,2308.058 C1287.25726,2307.855 1287.18026,2307.641 1287.01026,2307.519 C1286.83826,2307.397 1286.61026,2307.396 1286.43827,2307.514 C1286.05327,2307.776 1284.24427,2308.545 1283.12227,2308.768 C1281.72928,2307.547 1280.34828,2307 1278.67428,2307 C1277.43529,2307 1276.28429,2307.341 1274.94329,2308.105 C1272.5533,2309.467 1272.1913,2312.464 1272.3973,2314.221 C1265.78931,2313.67 1262.08632,2309.988 1260.77832,2308.393 C1260.67532,2308.268 1260.51732,2308.197 1260.35632,2308.211 C1260.19433,2308.223 1260.04833,2308.311 1259.96433,2308.45 C1259.09233,2309.884 1258.85133,2311.493 1259.26933,2313.102 C1259.53133,2314.111 1260.02133,2314.999 1260.57332,2315.693 C1260.17233,2315.484 1259.77833,2315.218 1259.44133,2314.95 C1259.29133,2314.83 1259.08533,2314.809 1258.91333,2314.891 C1258.74033,2314.975 1258.63033,2315.149 1258.63033,2315.341 C1258.63033,2318.251 1260.59232,2320.237 1262.28332,2321.218 C1261.91032,2321.153 1261.52232,2321.048 1261.16532,2320.942 C1260.97632,2320.886 1260.77232,2320.945 1260.64432,2321.094 C1260.51532,2321.242 1260.48632,2321.453 1260.56832,2321.631 C1261.60432,2323.865 1263.69832,2325.51 1266.01531,2326.004 C1264.01332,2327.254 1261.17332,2327.878 1258.55633,2327.581 C1258.32233,2327.558 1258.09633,2327.7 1258.02333,2327.928 C1257.95133,2328.155 1258.05033,2328.402 1258.26033,2328.517 C1261.30732,2330.188 1264.47232,2331 1267.93531,2331 L1267.95731,2331 C1272.8353,2330.996 1277.37529,2328.91 1280.73928,2325.128 C1283.78927,2321.7 1285.37727,2317.354 1285.02627,2313.441 C1285.85027,2312.859 1287.13426,2311.732 1287.91926,2310.52 C1288.04226,2310.331 1288.02326,2310.082 1287.87226,2309.914" id="Fill-44"></path>
        </g>
    </g>
</svg>
